GCTTAC,99.144747
CTTACG,99.944364
TTACGG,92.398604
TACGGC,97.681041
ACGGCC,78.441736
CGGCCA,81.125907
GGCCAT,101.996398
GCCATA,94.279144
CCATAC,85.649215
CATACC,102.720597
ATACCA,92.389538
TACCAC,103.52762
ACCACC,95.035707
CCACCC,90.854557
CACCCT,101.95535
ACCCTG,97.66747
CCCTGA,96.129458
CCTGAG,106.449096
CTGAGC,83.637212
TGAGCA,72.503376
GAGCAC,83.543289
AGCACG,96.423282
GCACGC,90.399813
CACGCC,94.739791
ACGCCC,85.423825
CGCCCG,102.972576
GCCCGA,101.154535
CCCGAT,96.708735
CCGATC,71.904634
CGATCT,71.98006
GATCTC,115.395714
ATCTCG,93.571492
TCTCGT,113.603033
CTCGTC,90.99083
TCGTCC,72.911513
CGTCCG,114.498813
GTCCGA,100.68426
TCCGAT,94.974087
CCGATC,71.904634
CGATCT,71.98006
GATCTC,115.395714
ATCTCG,93.571492
TCTCGG,113.78234
CTCGGA,100.20112
TCGGAA,84.068935
CGGAAG,71.894708
GGAAGC,73.207126
GAAGCT,76.767635
AAGCTA,81.546984
AGCTAA,99.636209
GCTAAG,107.174498
CTAAGC,90.55991
TAAGCA,80.633913
AAGCAG,86.017321
AGCAGG,101.493179
GCAGGG,85.52396
CAGGGT,76.111746
AGGGTC,65.932273
GGGTCG,65.353875
GGTCGG,110.871357
GTCGGG,98.212507
TCGGGC,81.633286
CGGGCC,67.968915
GGGCCT,78.204527
GGCCTG,97.952666
GCCTGG,93.480363
CCTGGT,106.97619
CTGGTT,81.431258
TGGTTA,63.218224
GGTTAG,99.151393
GTTAGT,102.594549
TTAGTA,83.787039
TAGTAC,74.346575
AGTACT,102.006987
GTACTT,88.106629
TACTTG,86.760655
ACTTGG,101.32567
CTTGGA,100.679033
TTGGAT,84.170721
TGGATG,61.540608
GGATGG,71.410879
GATGGG,106.866723
ATGGGA,90.161984
TGGGAG,75.547126
GGGAGA,69.499303
GGAGAC,73.058366
GAGACC,64.876683
AGACCG,80.757771
GACCGC,102.504318
ACCGCC,92.978019
CCGCCT,86.979268
CGCCTG,101.403031
GCCTGG,93.480363
CCTGGG,106.735921
CTGGGA,88.505819
TGGGAA,76.739663
GGGAAT,69.395853
GGAATA,66.348846
GAATAC,78.841023
AATACC,105.462237
ATACCA,92.389538
TACCAG,105.476644
ACCAGG,100.710459
CCAGGT,85.40992
CAGGTG,70.351662
AGGTGC,66.773444
GGTGCT,100.47287
GTGCTG,86.085634
TGCTGT,92.41649
GCTGTA,102.349535
CTGTAA,86.580953
TGTAAG,105.046949
GTAAGC,87.721705
TAAGCT,80.022393
